<?xml version="1.0" encoding="utf-8"?>
<!-- Generator: Adobe Illustrator 25.1.0, SVG Export Plug-In . SVG Version: 6.00 Build 0)  -->
<svg version="1.1" id="Layer_1" xmlns="http://www.w3.org/2000/svg" xmlns:xlink="http://www.w3.org/1999/xlink" x="0px" y="0px"
	 viewBox="0 0 100 105.89" style="enable-background:new 0 0 100 105.89;" xml:space="preserve">
<polygon points="2.5,97.5 29.64,83.93 16.07,70.36 "/>
<polygon points="71.66,30.56 31.73,71.92 36.43,77.14 77.14,36.43 "/>
<polygon points="66.04,25.32 63.57,22.86 22.86,63.57 25.36,66 "/>
<rect x="74.33" y="6.47" transform="matrix(0.7071 -0.7071 0.7071 0.7071 13.2205 64.0485)" width="19.19" height="19.19"/>
</svg>
